…
4) Extract the data, optionally save the data to a location of your choice. Note that if you opt to save files they will be saved by month as gzipped CSV.

```
xx <- ICOADS_get_obs(dates = c("1818-01-01", "1918-01-01", "2018-01-01"),
                     varnames = c("SST", "AT"),
                     outpath = "./my_icoads_obs")
names(xx)
# [1] "1818-01" "1918-01" "2018-01"

sapply(xx, nrow)
# 1818-01 1918-01 2018-01 
#     871   30283 3661770 

xx[['1818-0']]
# # A tibble: 871 x 5
#    time                     lat   lon   SST    AT
#    <chr>                  <dbl> <dbl> <dbl> <dbl>
#  1 1818-01-01T00:00:00Z  36.7   283.   23.1  13.3
#  2 1818-01-01T00:00:00Z  35.1   352.   NA    NA  
#  3 1818-01-01T00:00:00Z   8.87  331    NA    NA  
#  4 1818-01-01T00:00:00Z  -8.23   81.2  NA    NA  
#  5 1818-01-01T00:59:59Z -39.0    73.8  NA    NA  
#  6 1818-01-01T03:59:59Z  -5.63  116.   NA    27.8
#  7 1818-01-01T05:00:00Z  -0.570 106.   NA    25.6
#  8 1818-01-01T05:00:00Z  -6.57  105.   NA    28.3
#  9 1818-01-01T05:00:00Z -38.9    74.5  NA    NA  
# 10 1818-01-01T06:00:00Z  17.3    83.2  NA    26.9
# # … with 861 more rows
```
…
