…
# try it
path <- storm_path()
db <- read_database(path)
db
```

```
## # A tibble: 93 x 4
##    year  month day   date      
##    <chr> <chr> <chr> <date>    
##  1 2014  07    01    2014-07-01
##  2 2014  07    02    2014-07-02
##  3 2014  07    03    2014-07-03
##  4 2014  07    04    2014-07-04
##  5 2014  07    05    2014-07-05
##  6 2014  07    21    2014-07-21
##  7 2014  07    22    2014-07-22
##  8 2014  07    23    2014-07-23
##  9 2014  08    23    2014-08-23
## 10 2014  08    24    2014-08-24
## # … with 83 more rows
```
…
x <- read_storms(db2, path)
x
```

```
## # A tibble: 78 x 13
##    name  year  month day    hour   lat  long status category  wind pressure
##    <chr> <chr> <chr> <chr> <dbl> <dbl> <dbl> <chr>     <dbl> <dbl>    <dbl>
##  1 Fay   2014  10    11        6  26   -65   tropi…        0    55      994
##  2 Fay   2014  10    11       12  27.2 -65.3 tropi…        0    60      990
##  3 Fay   2014  10    11       18  28.7 -65.4 tropi…        0    60      988
##  4 Fay   2014  10    12        0  30.2 -65.2 tropi…        0    60      987
##  5 Fay   2014  10    12        6  31.7 -64.9 hurri…        1    65      985
##  6 Fay   2014  10    12        8  32.3 -64.7 hurri…        1    70      984
##  7 Fay   2014  10    12       12  33.1 -63.9 hurri…        1    70      983
##  8 Fay   2014  10    12       18  33.6 -61.9 tropi…        0    60      986
##  9 Gonz… 2014  10    12        0  16.4 -55.9 tropi…       -1    30     1010
## 10 Gonz… 2014  10    12        6  16.4 -56.9 tropi…       -1    30     1008
## # … with 68 more rows, and 2 more variables: ts_diameter <dbl>,
## #   hu_diameter <dbl>
```
…
